0	0	0	0	0	0	0	0	0	0	0	0	0	0	0	0	0	0	0	0	0	0	0	0	0	0	0	0	0	0	0	0	0	0	0	0	0	0	0	0	0	0	0	0	0	0	0	0	0	0	0	0	0	0	0	0	0	0	0	0	0	0	0	0	0	0	0	0	0	0	0	0	0	0	0	0	0	0	0	0	0	0	0	0	0	0	0	0	0	0	0	0	0	0	0	0	0	0	0	0	0
0.0105	0	0	0	0	0	0	0	0	0	0	0	0	0	0	0	0	0	0	0	0	0	0	0	0	0	0	0	0	0	0	0	0	0	4	7	6	5	6	5	8	5	7	9	4	6	6	6	6	5	9	5	7	6	6	5	5	8	5	7	8	6	4	6	8	5	5	9	5	7	6	6	5	5	8	5	7	8	6	4	6	7	6	5	9	5	6	7	5	6	5	8	5	7	8	5	5	7	6	5	6
0.022	5	6	7	5	6	5	8	5	7	8	5	5	6	7	5	6	9	5	6	6	6	6	5	8	5	7	8	5	5	6	7	5	2	3	14	14	7	12	15	11	6	16	13	8	14	16	11	8	19	13	6	17	17	9	10	18	13	6	18	14	10	13	17	12	7	18	13	8	17	16	10	10	18	13	5	18	15	10	12	18	12	7	18	13	8	15	17	11	8	18	14	6	16	17	10	11	17	14	6	16
0.026	8	13	18	12	8	17	15	7	14	18	10	9	18	14	6	17	15	9	13	17	13	7	17	15	8	14	17	11	9	17	15	6	5	8	15	10	13	14	10	12	15	14	9	13	15	11	10	14	12	11	11	16	10	12	13	12	11	15	12	10	10	14	13	11	16	13	11	11	15	13	12	14	12	13	13	14	10	10	18	12	11	16	14	11	12	17	13	11	17	13	13	14	15	11	12	15	13	11	14	15
0.038	12	17	11	12	13	13	11	13	15	12	11	15	14	12	14	15	10	12	15	12	10	14	14	11	13	16	12	11	14	13	11	13	6	14	17	17	16	21	16	19	19	16	17	17	22	15	19	19	14	19	17	16	19	17	21	14	19	19	14	17	17	16	16	19	20	15	20	19	15	17	18	16	14	17	17	18	17	16	19	15	14	19	16	14	18	18	15	18	21	14	15	19	20	15	19	16	19	15	16	17
0.0525	19	18	15	15	20	16	16	19	16	14	20	16	16	14	21	18	16	18	20	14	17	21	19	16	18	18	15	19	22	16	19	19	6	14	19	22	23	21	19	23	21	22	20	24	22	23	23	23	21	20	22	22	21	22	22	21	19	22	26	21	22	21	23	21	21	21	20	26	20	22	24	20	24	20	20	22	22	21	18	24	22	20	21	24	21	20	20	23	19	25	24	24	20	24	21	21	22	22	23	18
0.0475	23	19	21	22	24	21	19	25	18	20	23	22	21	24	24	20	22	23	20	21	20	24	21	21	24	20	22	20	21	21	20	19	7	14	21	20	22	20	25	22	20	20	21	20	20	22	20	18	22	21	20	19	20	20	23	20	21	21	20	21	21	19	20	20	20	19	23	19	19	19	22	22	22	20	19	19	21	22	20	19	20	22	22	20	21	21	21	23	22	18	20	20	20	21	20	23	19	22	21	20
0.071	19	20	21	21	23	20	22	18	20	19	19	19	23	19	23	20	22	21	20	22	21	21	20	20	24	22	19	22	21	21	22	20	6	18	27	27	25	22	27	22	24	27	26	29	23	22	24	21	23	29	25	25	23	26	25	25	26	28	23	22	26	30	29	28	24	25	26	24	27	26	27	24	28	28	25	27	26	24	25	26	24	25	28	29	24	28	26	25	26	29	25	25	26	26	28	21	25	26	27	25
0.077	27	25	26	27	26	29	26	27	27	25	24	27	25	25	29	25	26	29	25	25	27	27	26	25	24	26	28	25	29	25	25	25	7	18	27	27	28	26	27	27	28	28	25	23	26	24	29	25	25	26	27	26	27	26	25	29	27	25	24	27	26	23	25	28	26	28	26	29	25	26	30	29	27	26	28	28	25	28	25	27	27	27	26	26	27	26	26	26	28	25	25	29	24	25	25	29	29	25	29	27
0.1035	27	25	22	28	28	24	28	28	24	24	27	27	26	29	26	28	26	28	25	27	26	26	27	24	25	29	27	28	30	27	29	29	9	21	26	27	27	29	27	27	28	25	28	30	28	26	23	25	27	20	9	5	24	28	25	25	28	27	27	26	26	26	23	25	26	28	26	29	26	28	27	24	26	25	27	29	26	27	26	27	26	28	25	25	29	27	22	26	26	26	24	11	14	22	26	28	28	28	21	25
0.1155	25	29	27	25	30	27	23	28	31	27	25	29	28	23	31	27	25	28	25	27	27	23	27	27	26	25	28	26	30	26	9	15	7	16	26	22	25	26	29	25	29	30	27	25	26	26	25	26	29	27	27	27	29	29	26	27	27	27	28	24	28	29	26	29	27	28	26	28	24	12	2	26	26	27	26	25	20	29	29	27	27	28	25	27	25	27	24	26	23	29	27	24	29	30	28	26	26	27	26	26
0.1015	26	27	24	26	28	28	28	26	24	22	5	12	26	25	26	27	25	26	27	27	25	29	25	31	28	30	23	28	25	26	26	25	5	12	27	27	27	28	28	25	28	29	26	28	28	24	24	23	23	27	24	26	30	28	28	25	26	27	27	27	27	28	26	27	27	26	26	25	20	23	9	18	28	24	24	31	26	29	26	25	29	29	27	22	29	27	28	25	27	29	25	25	27	29	28	25	30	25	28	27
0.1245	28	27	26	28	29	28	26	17	5	18	26	30	25	27	26	27	26	29	27	28	24	27	27	27	28	29	25	28	29	27	28	26	11	18	30	24	27	27	29	27	27	27	27	30	26	27	28	27	27	26	29	27	27	31	16	5	19	25	27	24	25	28	27	28	26	29	24	26	30	25	26	26	28	28	25	25	24	25	28	26	29	26	20	30	27	27	28	28	27	27	26	26	11	5	6	6	20	25	27	28
0.134	26	26	24	27	28	28	29	30	20	28	30	28	28	27	25	28	29	26	26	30	25	29	24	29	26	23	26	28	24	21	9	5	7	15	11	8	6	17	27	27	27	27	25	28	29	27	27	29	26	26	27	27	27	24	25	26	30	26	25	25	27	26	29	29	29	27	22	29	24	26	26	20	4	9	4	14	27	25	25	29	26	30	25	25	22	25	27	24	26	27	27	30	30	21	29	25	28	29	24	23
0.1355	25	29	26	28	29	23	26	25	25	24	25	22	4	5	3	11	28	28	24	26	27	23	28	27	24	27	26	27	25	23	29	29	8	17	25	27	30	24	29	24	25	12	5	22	24	27	28	26	23	25	28	27	25	28	28	26	24	25	25	25	29	27	26	22	9	5	27	30	28	27	28	26	30	25	30	29	26	26	24	12	11	28	21	25	24	27	25	26	24	29	26	27	26	27	24	30	16	25	28	25
0.142	25	23	9	7	24	26	28	25	24	26	23	23	27	24	27	21	23	15	10	5	11	24	26	27	27	25	27	26	27	22	24	24	8	17	26	26	27	26	27	27	26	26	27	29	23	26	24	27	11	14	25	27	27	28	24	29	25	26	24	32	27	28	30	29	27	25	29	25	26	18	5	21	23	25	29	27	27	26	27	28	23	25	25	27	22	26	26	22	26	24	26	27	24	27	25	31	28	24	28	26
0.1685	27	26	25	24	29	28	25	22	14	6	7	3	5	27	24	23	27	25	26	32	28	25	25	28	27	27	20	27	25	25	26	25	10	19	26	27	26	24	29	26	26	27	21	9	6	4	4	11	26	26	25	29	24	25	27	28	30	26	28	29	27	29	24	27	26	29	26	25	28	25	24	26	25	25	27	27	25	26	30	24	24	22	20	19	1	12	6	5	2	24	27	25	30	26	29	28	26	27	26	27
0.1615	25	24	25	26	28	27	25	26	25	27	27	30	30	26	28	28	28	28	24	28	22	6	8	13	3	4	2	10	22	26	25	23	7	7	4	4	21	24	22	5	13	1	1	20	25	26	26	28	22	29	28	29	30	24	27	29	23	26	26	27	27	27	28	28	26	27	29	27	23	30	26	25	23	25	27	25	28	28	9	4	12	5	3	5	26	25	31	26	23	25	29	26	27	25	27	29	26	25	23	27
0.1915	27	26	28	28	23	25	27	25	24	26	28	26	25	27	30	27	27	25	13	6	3	8	9	12	26	26	24	28	24	28	25	28	10	5	9	7	7	9	27	25	27	26	24	25	28	26	28	25	26	25	20	7	17	11	2	12	25	21	27	27	26	28	28	28	27	25	25	28	27	25	30	26	23	11	7	13	24	26	27	25	28	25	30	24	27	22	26	24	15	11	6	8	14	3	4	23	26	28	27	24
0.1945	23	29	26	27	28	27	26	27	27	24	31	26	28	25	28	27	24	25	27	26	27	28	25	25	25	23	9	7	3	17	17	7	5	15	9	7	5	23	25	26	26	30	28	26	27	25	26	27	24	24	28	30	28	25	26	26	4	3	7	3	27	29	24	26	26	28	23	25	24	28	28	27	26	10	7	4	23	26	22	25	31	24	23	22	26	27	26	26	26	28	24	28	25	23	23	25	8	11	4	28
0.1855	27	31	27	26	29	26	23	26	25	18	8	12	13	5	4	9	3	15	26	26	27	28	27	27	27	26	28	27	25	25	28	23	11	17	26	27	26	25	25	28	11	4	0	24	25	24	28	29	29	24	23	25	29	25	20	26	26	7	5	3	9	5	27	28	26	28	27	24	26	26	31	24	27	27	27	24	25	24	25	27	27	19	6	11	31	31	25	26	26	27	24	27	27	24	25	25	24	12	7	6
0.2015	9	27	30	26	29	23	24	26	27	29	26	25	26	26	27	24	26	31	29	24	28	27	27	24	31	22	26	28	29	23	25	25	7	18	29	30	27	26	29	28	23	28	25	26	24	19	10	28	13	12	12	5	12	29	28	22	27	23	26	13	6	5	1	23	27	25	24	28	28	25	27	27	24	26	27	26	27	27	28	29	26	27	25	23	24	26	13	10	11	11	4	6	25	30	23	26	25	24	23	8
0.247	9	11	22	31	28	29	31	24	26	28	28	28	29	29	27	29	24	27	26	26	25	24	25	18	8	7	4	6	18	16	29	26	9	16	28	24	10	6	26	23	26	29	29	22	10	16	4	5	13	28	23	21	6	4	23	26	26	27	18	6	10	16	25	31	24	22	23	27	23	27	29	24	27	28	24	8	4	4	1	20	24	25	26	25	28	22	13	23	26	21	4	13	6	5	8	7	25	26	30	24
0.2255	29	28	27	28	27	27	27	27	28	26	26	25	26	26	19	3	4	4	2	3	16	22	27	25	28	26	25	27	29	22	5	9	4	6	20	20	29	22	11	8	6	11	20	25	26	26	24	27	26	25	26	23	8	10	4	3	5	23	27	23	28	26	28	24	27	28	24	28	25	25	27	25	27	24	25	27	20	7	10	5	7	27	23	25	22	23	26	29	24	28	24	8	6	13	8	6	2	25	26	25
0.2465	28	28	29	29	30	27	27	23	26	25	27	26	18	15	10	1	7	1	7	8	1	0	14	27	25	25	28	25	26	25	24	27	8	19	24	25	11	9	5	16	21	17	10	26	27	20	27	14	12	5	15	18	16	9	2	2	0	21	27	25	26	26	27	29	26	26	24	27	25	26	26	23	23	26	28	26	24	5	13	8	25	26	24	26	30	27	19	8	10	4	12	27	21	9	10	5	0	5	23	25
0.256	25	25	26	26	30	25	25	26	28	26	26	26	27	23	27	23	10	5	19	24	26	27	26	23	24	20	9	11	8	19	19	8	2	17	14	12	7	22	26	26	25	24	14	8	6	15	27	28	24	25	29	24	30	25	28	23	9	9	8	4	8	17	26	28	27	26	28	30	26	21	17	3	15	26	21	10	8	6	25	25	26	27	27	27	26	25	25	28	27	26	26	25	28	25	15	6	6	5	10	9
0.2505	11	25	27	24	25	29	26	26	28	25	20	24	5	5	7	2	15	26	22	27	27	26	27	24	26	26	26	28	23	29	28	26	7	4	2	26	27	24	27	27	26	28	13	9	20	24	24	15	7	20	26	27	25	26	27	27	24	7	6	5	18	27	25	26	24	24	27	26	18	5	2	10	10	4	16	29	27	22	24	26	26	24	23	24	27	26	16	15	1	16	29	25	25	23	24	30	25	7	13	22
0.262	31	25	26	25	27	24	22	19	5	3	5	4	19	27	27	29	27	26	24	23	28	26	22	25	17	6	8	6	21	25	25	27	10	17	29	26	29	26	26	26	26	26	27	28	23	23	13	11	6	6	16	21	23	14	5	3	18	22	26	25	27	26	23	8	9	1	20	27	23	23	11	5	26	26	31	24	32	29	27	23	25	27	30	23	24	24	16	7	4	9	5	18	24	12	12	6	23	25	26	24
0.2865	26	26	18	6	5	16	26	25	27	27	25	28	27	29	25	27	29	29	28	28	27	25	20	10	5	5	5	10	6	7	20	16	2	15	28	24	17	8	7	26	28	23	9	13	8	10	26	27	21	10	7	25	22	25	7	14	10	7	8	24	29	27	28	26	27	27	24	25	18	8	10	7	5	15	30	27	24	26	26	27	26	14	10	4	7	11	15	29	25	24	26	24	20	11	12	8	6	13	25	28
0.292	27	23	23	23	27	23	9	9	4	13	14	27	25	28	28	23	27	25	22	4	8	10	4	3	13	24	25	28	26	27	28	15	4	16	18	24	7	6	13	27	24	25	28	24	24	17	14	13	7	18	26	26	22	10	6	10	8	25	26	24	13	5	23	20	7	26	21	22	27	28	28	27	26	27	16	6	12	7	21	27	25	28	21	22	25	11	3	7	7	6	0	11	24	24	23	25	15	27	22	13
0.29	6	25	22	30	30	25	26	28	29	21	20	22	6	3	5	7	3	14	25	26	24	28	25	26	24	17	7	3	6	4	26	23	7	4	9	4	28	24	26	25	13	8	19	30	23	28	29	24	9	7	6	5	8	24	22	26	26	22	23	25	16	17	9	5	8	1	18	28	26	24	29	23	24	8	10	17	25	27	26	29	24	24	26	27	26	24	7	11	5	6	9	11	8	1	8	25	27	24	25	26
0.31	24	23	13	7	5	9	25	27	28	25	28	27	27	26	28	24	30	27	26	26	25	24	15	7	7	4	6	9	8	3	15	4	5	18	25	9	8	18	24	19	14	20	20	8	1	11	4	9	23	27	22	24	28	28	25	28	18	8	7	24	27	19	12	6	0	22	29	17	7	6	8	5	26	27	25	25	25	27	25	25	21	28	13	7	5	5	8	6	17	30	22	26	25	28	25	25	21	12	25	26
0.309	10	12	7	14	27	24	17	5	7	7	5	3	4	13	27	25	25	27	24	30	26	28	26	12	4	11	6	25	25	27	26	26	8	18	25	14	5	12	17	6	12	29	28	28	29	27	29	26	13	7	5	5	15	6	10	23	23	25	25	6	13	23	23	25	21	21	24	25	25	25	23	13	16	5	2	12	7	20	14	13	27	25	25	26	24	16	29	22	10	8	9	7	1	22	25	23	26	23	20	5
0.322	24	26	26	24	26	27	27	25	25	22	11	4	11	7	3	9	6	0	16	27	22	25	26	27	26	22	21	15	8	6	25	25	10	17	26	17	7	2	6	11	25	27	25	22	6	24	23	16	11	28	25	26	13	2	8	20	23	6	6	17	21	6	8	24	24	5	18	23	25	28	27	23	27	22	9	8	9	5	3	8	10	27	28	27	26	24	26	25	21	28	26	28	21	6	19	21	6	11	2	12
0.346	24	16	12	7	27	27	23	22	25	25	26	22	19	5	12	6	3	2	6	6	1	10	27	24	27	28	26	23	25	28	23	26	10	12	10	4	8	15	26	26	23	9	14	15	13	2	19	28	23	24	23	9	5	3	28	23	10	12	3	26	28	24	27	24	25	20	24	20	3	16	5	2	17	24	11	8	14	6	16	28	29	27	25	14	9	16	27	21	9	4	7	8	8	11	27	23	22	7	26	28
0.3295	26	28	26	28	27	7	4	3	4	11	4	7	9	22	15	19	30	30	26	25	26	24	23	26	24	3	3	8	6	17	8	1	5	8	18	19	8	1	24	25	17	14	4	17	28	21	19	9	4	22	24	25	22	5	6	22	24	24	7	7	14	22	15	6	23	21	26	16	9	25	23	20	10	3	6	24	24	17	3	1	19	27	22	25	21	25	14	6	5	5	26	27	24	25	27	25	19	9	11	17
0.351	8	17	14	26	27	25	20	22	19	6	5	12	5	12	22	15	9	2	4	18	31	25	26	23	23	11	5	6	12	27	28	28	6	2	8	19	27	27	20	11	3	21	26	25	24	27	17	8	4	10	13	1	20	16	3	21	28	26	29	27	18	4	12	25	27	22	16	9	3	16	9	4	12	5	9	11	25	27	30	22	24	21	9	17	24	15	4	7	7	6	1	17	3	12	25	29	28	26	23	17
0.358	6	11	26	27	26	17	13	5	12	5	15	5	9	5	26	25	26	24	28	25	25	22	23	16	6	9	2	4	5	7	21	28	9	18	13	22	12	4	11	15	25	24	25	12	3	8	1	10	24	15	8	15	27	25	13	4	21	24	8	21	24	24	12	7	7	8	11	24	22	19	22	23	25	13	8	11	14	4	14	26	25	23	15	8	6	1	9	25	13	10	28	24	14	8	3	17	12	7	22	23
0.3955	24	14	2	3	10	5	7	21	28	26	26	24	26	22	27	8	19	27	25	25	14	2	2	14	17	18	11	9	3	21	25	26	6	14	12	6	7	18	23	18	8	6	3	23	24	20	10	25	25	17	4	7	8	13	7	28	26	27	10	4	9	27	18	3	10	5	9	21	12	7	11	6	22	26	15	6	3	19	23	22	7	2	9	5	28	26	25	24	23	20	6	0	14	26	25	24	15	4	3	5
0.402	24	21	7	4	2	3	15	23	5	13	25	28	20	4	4	5	8	23	26	19	3	3	14	2	15	24	29	25	23	25	26	13	10	4	24	24	19	5	6	9	2	10	27	25	10	6	18	4	22	30	23	24	17	7	13	8	7	6	18	30	28	24	11	6	4	20	13	4	12	6	6	15	27	29	26	20	12	5	7	3	15	13	23	25	9	12	23	26	23	24	9	4	12	5	7	3	21	27	25	27
0.3865	11	8	10	8	4	6	24	11	3	11	26	26	27	26	23	7	5	7	4	3	15	27	19	10	3	5	12	23	22	25	24	20	8	14	24	12	4	19	16	19	20	8	9	10	24	22	2	14	7	3	12	26	17	8	9	19	26	12	16	26	10	6	2	13	24	29	25	27	13	9	5	2	3	21	16	9	8	8	22	25	26	9	10	9	26	26	19	3	7	12	16	9	6	3	7	3	19	24	25	23
0.3985	11	4	10	26	28	24	24	11	14	7	2	6	25	26	12	3	2	3	17	27	25	26	23	26	24	18	6	11	23	15	4	4	2	5	7	17	24	17	7	8	8	4	19	11	19	15	22	23	22	17	4	5	3	16	26	27	9	6	8	16	22	11	3	26	26	23	24	21	8	2	5	22	23	7	7	25	29	23	11	11	6	5	8	0	16	27	24	22	24	23	18	4	9	5	0	21	29	21	11	19
0.426	7	3	16	21	27	23	17	8	10	6	6	24	24	27	20	18	9	5	3	7	9	4	6	15	25	22	27	23	10	5	5	4	4	15	26	23	22	22	15	6	15	9	4	12	21	14	5	2	16	22	7	1	7	21	9	7	4	6	5	15	25	25	23	27	16	5	4	15	25	15	4	9	4	14	23	27	25	18	12	6	8	6	7	5	25	21	15	3	19	20	6	8	5	20	26	4	5	7	8	5
0.399	25	28	26	24	7	3	7	20	22	13	4	21	27	28	29	25	17	5	6	2	8	8	4	4	1	0	10	23	25	12	6	10	9	8	7	12	21	18	4	23	12	7	22	24	20	9	11	4	6	24	28	27	14	6	4	0	14	25	24	9	11	23	12	6	13	18	15	18	27	20	9	11	7	5	20	20	14	3	7	6	14	16	24	27	17	6	7	22	23	26	24	12	7	6	2	6	10	24	25	24
0.4495	6	12	5	19	27	26	21	7	18	7	8	13	4	4	17	19	12	9	9	28	28	26	15	24	24	23	19	5	4	9	7	11	2	15	7	15	14	7	1	10	15	27	22	9	7	9	3	2	29	22	23	4	5	14	24	22	9	8	23	9	1	5	13	24	7	27	15	10	6	4	9	12	11	6	4	9	24	13	3	3	2	0	17	29	26	22	11	4	4	8	22	26	18	4	6	5	16	22	27	25
0.4525	4	8	2	24	24	26	15	20	6	3	24	8	3	10	22	6	9	5	5	7	5	19	25	26	13	7	7	9	8	19	23	20	3	6	6	5	8	24	15	11	20	9	14	6	0	18	11	8	10	6	14	2	17	23	25	22	10	4	8	5	22	23	11	10	4	8	9	23	15	6	6	16	10	9	14	7	6	10	7	16	12	21	16	12	0	4	4	17	23	8	18	3	9	8	24	24	23	16	17	7
0.4555	14	8	16	7	15	25	14	1	8	12	12	10	7	5	4	8	21	23	25	19	6	12	4	9	3	6	13	22	13	14	17	9	8	11	8	21	22	19	7	5	15	20	7	11	4	17	8	5	25	22	19	4	12	9	19	12	3	8	4	7	9	19	20	8	3	11	24	21	9	5	11	6	4	10	23	26	27	11	5	7	16	11	11	6	2	4	17	10	6	26	25	23	22	7	14	3	9	10	3	22
0.4545	9	16	7	4	25	25	11	4	6	8	9	1	1	7	23	26	21	19	5	5	12	24	10	9	15	6	2	4	24	26	25	25	6	3	20	25	21	6	13	11	13	16	8	3	22	24	20	11	3	7	16	5	3	3	2	24	23	25	13	4	14	6	15	25	18	5	10	19	11	7	8	10	13	2	21	22	16	7	3	18	8	11	3	4	2	24	22	22	11	8	1	24	14	3	1	7	22	27	24	21
0.4645	5	8	27	25	21	5	2	1	24	21	11	8	6	11	24	13	6	5	1	19	14	8	13	0	1	15	26	24	17	13	4	15	5	6	1	17	20	15	6	7	5	15	26	11	4	10	13	9	17	13	4	6	7	23	21	25	13	6	7	7	6	7	9	25	13	5	15	5	13	26	21	7	12	3	2	2	20	22	4	10	15	24	12	4	14	7	16	25	23	10	3	1	0	5	25	26	22	7	12	10
0.4835	13	25	23	5	11	14	7	15	19	16	1	12	10	4	5	20	8	9	3	20	24	24	10	3	21	25	21	14	5	3	4	4	0	15	14	6	20	9	10	15	3	10	4	12	20	10	8	4	5	22	20	4	7	0	10	24	9	25	12	3	11	2	21	15	4	10	4	21	4	23	18	4	13	9	21	23	9	12	7	9	8	9	4	3	6	21	8	13	25	17	8	2	9	2	0	14	24	21	14	5
0.519	12	24	10	3	5	14	26	24	4	9	8	2	14	26	23	7	6	13	5	4	0	7	7	1	24	26	24	24	10	5	5	8	0	7	5	11	14	6	12	9	8	9	13	7	18	9	5	11	11	10	8	6	9	6	5	15	13	9	4	19	9	13	10	5	11	9	23	20	8	5	3	14	5	0	19	27	10	4	9	7	11	7	2	15	25	11	5	7	3	19	14	4	3	14	27	13	5	7	6	8
0.522	14	13	9	18	29	21	14	6	6	3	9	2	5	4	22	20	8	2	8	10	3	8	20	19	12	5	5	3	6	3	6	23	11	2	5	6	12	3	0	19	14	5	4	7	7	26	10	12	5	19	17	8	2	6	8	5	4	2	16	20	6	23	12	13	2	5	3	19	22	8	0	18	6	4	12	7	9	22	8	6	11	9	7	10	29	24	10	5	6	3	2	16	21	4	3	14	3	3	8	7
0.512	25	24	3	11	4	4	2	6	25	25	16	3	10	3	19	12	5	4	14	10	5	7	27	24	16	3	6	1	12	8	6	22	4	9	17	4	9	23	22	6	4	22	6	14	15	8	7	10	24	23	6	4	18	15	11	4	8	7	15	11	2	22	10	3	4	2	23	13	5	5	24	13	5	6	5	8	5	17	21	13	5	10	17	17	11	3	9	16	15	21	10	3	12	10	8	5	8	2	7	15
0.531	1	1	15	15	14	15	6	4	25	15	7	4	2	4	4	9	6	5	11	26	28	23	18	2	10	2	0	26	26	25	22	8	0	5	7	6	7	9	9	16	9	3	5	9	20	4	2	16	8	13	11	6	5	2	16	17	7	20	13	3	6	9	8	11	28	24	17	3	3	5	3	25	10	4	3	13	4	3	12	13	7	5	7	6	16	21	6	2	4	13	24	13	7	14	23	20	5	13	6	4
0.549	5	10	12	22	25	19	10	2	11	8	5	18	12	3	8	2	11	24	10	7	5	10	8	6	7	17	6	10	3	6	10	24	8	6	6	2	8	25	16	12	3	3	15	10	7	14	14	13	4	11	2	8	25	14	10	5	5	11	18	4	22	13	8	6	5	15	4	11	11	4	9	17	2	3	17	17	12	18	4	4	6	3	5	21	6	10	6	16	4	5	6	8	5	13	20	7	1	20	8	5
0.551	24	17	5	8	9	5	6	8	6	8	21	7	4	2	3	22	22	9	5	1	15	6	11	10	4	7	2	12	14	6	6	17	3	2	5	7	5	9	24	9	9	9	5	4	16	21	9	11	6	6	9	8	12	8	16	5	8	9	8	11	11	13	7	7	7	2	5	22	10	11	24	9	7	4	10	2	9	1	4	13	22	10	9	16	25	13	8	8	3	8	6	3	18	12	6	9	4	10	5	10
0.549	7	6	10	6	7	9	8	24	22	21	10	7	5	3	7	1	10	0	4	8	24	21	13	7	6	12	7	4	4	19	15	6	3	2	9	22	13	5	10	14	3	2	19	9	5	5	6	1	9	24	16	15	10	4	13	9	10	20	3	5	17	9	13	8	10	8	7	8	3	18	8	3	15	22	14	10	2	6	12	13	5	2	3	0	11	12	4	6	5	3	21	25	10	2	12	10	4	14	11	4
0.5765	23	8	15	8	5	3	10	6	9	6	9	20	24	14	3	6	7	5	11	7	8	4	2	2	14	18	8	7	0	25	23	11	1	13	10	5	9	13	6	6	7	3	17	5	12	5	13	14	12	7	5	5	0	17	24	4	8	4	15	11	12	8	5	5	11	4	4	11	1	16	15	8	7	14	9	3	3	8	2	18	12	5	15	8	4	7	20	15	15	6	7	6	6	5	1	25	10	7	22	11
0.599	9	11	16	8	3	1	2	5	3	15	23	7	10	18	2	3	2	8	7	12	5	7	12	8	3	5	11	21	7	8	7	4	1	2	6	13	8	3	13	7	9	9	5	7	8	8	5	9	7	7	9	3	0	5	5	7	8	4	6	8	8	7	7	10	8	5	9	20	7	14	4	3	5	9	2	7	15	10	3	6	5	8	13	10	6	11	3	7	2	13	9	5	2	8	5	4	5	2	17	9
0.5835	12	14	3	4	11	7	23	8	14	7	9	1	4	8	4	9	12	11	6	4	7	14	5	4	12	10	3	6	3	3	7	7	4	9	5	4	11	10	18	4	1	15	5	9	15	10	2	5	20	4	9	12	16	6	11	7	6	11	7	5	12	7	5	9	3	5	8	7	1	14	20	10	2	3	10	17	14	7	10	3	3	6	7	8	2	10	19	7	8	4	5	6	23	11	9	6	10	6	9	25
0.612	4	5	3	6	7	2	8	4	4	11	20	7	4	4	18	15	12	6	3	6	8	2	4	3	7	10	21	5	4	7	18	19	1	7	6	5	13	3	14	8	6	7	12	7	6	7	0	6	5	8	4	6	6	12	13	3	10	8	4	7	1	13	12	10	4	7	17	6	11	9	3	16	22	4	6	7	3	3	12	2	11	4	9	12	5	9	5	5	5	7	6	7	4	2	5	16	6	10	12	5
0.595	4	14	10	8	4	8	15	10	6	22	12	5	4	2	9	8	5	2	13	2	6	15	26	13	4	1	4	8	6	5	4	3	3	1	4	14	8	4	7	1	13	10	11	4	10	3	13	8	3	4	8	22	9	19	6	9	5	9	3	8	18	9	2	2	9	13	13	3	3	8	1	23	10	8	4	7	3	11	19	6	6	16	10	11	4	8	11	3	7	4	15	1	18	21	6	8	4	12	4	11
0.6065	4	8	7	2	6	20	7	3	7	12	7	13	4	9	5	1	12	5	8	5	20	12	6	10	8	7	4	5	1	3	15	23	8	2	14	7	16	4	0	19	14	5	2	9	7	7	6	3	6	2	13	2	4	3	11	14	12	3	4	6	12	8	7	6	10	5	9	8	2	9	3	2	5	18	8	1	13	5	10	15	16	6	4	4	9	10	5	6	4	8	6	5	7	6	7	7	6	7	6	5
0.6285	16	7	4	4	16	13	9	6	6	8	6	14	8	8	2	7	10	8	15	23	13	8	3	5	13	5	6	6	2	3	11	8	1	6	6	17	7	3	8	5	10	4	7	7	14	5	7	2	3	4	11	5	4	6	9	6	0	20	4	4	19	10	10	8	6	11	2	4	9	8	6	3	12	18	7	10	6	8	8	6	4	8	5	14	13	6	8	4	4	5	8	8	5	14	7	7	6	3	12	6
0.6475	12	12	7	10	7	10	2	6	9	6	3	4	17	17	6	6	7	2	9	6	11	7	3	3	8	8	4	5	5	14	7	18	6	3	7	3	14	5	7	5	3	3	0	9	4	8	7	3	6	10	4	11	3	2	2	12	5	2	7	17	5	3	9	13	10	6	5	7	6	4	9	8	7	1	14	6	8	7	5	6	7	5	5	4	2	16	7	6	5	8	12	6	3	7	2	5	10	7	1	15
0.659	11	11	5	2	5	2	8	10	4	5	12	5	6	6	8	19	7	3	7	12	6	8	5	6	2	2	13	8	4	7	22	10	0	3	6	3	10	3	5	16	15	2	8	6	4	1	7	4	9	2	5	14	4	8	6	5	7	4	12	1	5	6	8	9	6	10	10	2	8	9	11	6	6	5	5	7	4	6	13	8	12	5	8	5	13	5	7	2	4	4	4	9	6	5	6	4	6	11	8	5
0.6675	3	5	7	7	3	5	16	3	15	6	9	6	4	2	11	10	2	3	1	17	22	8	7	4	5	7	1	11	3	7	2	20	2	4	6	1	11	7	10	14	4	5	8	7	9	10	2	8	8	0	4	8	7	4	2	1	4	5	4	4	7	6	4	12	6	3	2	5	15	6	6	9	6	6	12	9	2	2	5	25	15	2	2	2	12	6	7	5	8	6	4	9	4	2	5	6	4	6	5	4
0.679	17	5	4	3	13	8	6	8	8	6	4	4	7	10	9	6	5	6	4	1	24	10	7	2	7	4	2	10	5	9	5	10	4	6	8	0	5	9	7	1	5	9	4	6	10	2	4	11	2	9	5	4	6	10	3	5	4	13	8	5	9	9	8	5	8	8	4	3	1	10	8	3	5	3	5	9	5	5	4	5	7	5	11	4	11	11	2	6	4	9	4	8	4	8	4	5	4	6	6	13
0.683	6	12	3	5	5	12	2	4	4	4	9	5	6	6	4	4	4	6	6	4	2	16	12	8	7	7	9	2	5	6	4	8	0	5	4	4	7	6	7	6	8	10	6	2	8	4	9	3	7	8	3	4	7	5	9	9	4	7	10	3	9	4	2	10	8	7	4	5	3	5	3	7	4	14	5	3	1	6	4	7	9	15	6	3	7	4	2	6	8	3	5	5	6	5	5	2	11	6	5	8
0.6965	10	3	2	6	4	8	9	1	6	3	3	6	3	4	20	6	5	2	7	4	5	18	7	2	0	7	5	8	4	9	6	2	0	6	6	4	6	4	4	3	5	6	8	7	8	4	1	6	9	3	4	17	0	7	7	4	10	11	6	3	3	3	7	10	3	9	2	2	6	12	3	11	7	8	5	7	6	4	0	5	6	4	5	4	16	8	3	3	3	0	7	4	7	12	4	5	7	8	10	2
0.7015	2	5	5	9	4	3	4	4	1	19	11	10	6	4	10	11	7	2	2	2	5	5	6	8	11	5	4	7	6	3	2	3	4	6	1	6	2	9	2	6	5	5	2	7	6	4	14	4	5	1	9	3	5	5	2	1	5	4	10	8	6	2	7	4	12	8	1	4	2	7	3	3	5	5	8	8	4	9	2	2	13	4	3	3	8	3	9	8	7	3	3	0	10	8	8	5	6	5	4	15
0.7255	3	2	7	11	9	5	4	3	4	4	6	6	1	2	6	4	6	14	3	1	6	9	4	0	5	4	9	1	12	7	6	3	1	5	2	6	5	8	4	6	5	5	1	7	11	5	2	4	2	4	1	7	2	4	9	3	8	1	1	6	3	1	8	6	3	8	0	5	5	3	4	7	4	2	2	2	9	7	3	4	4	3	11	3	3	3	10	5	7	4	4	1	6	5	5	4	7	7	14	5
0.7135	8	2	1	6	9	4	7	4	4	8	3	3	3	7	7	4	7	2	9	4	10	2	5	7	8	1	5	7	1	9	4	3	2	0	4	6	2	9	7	5	5	3	8	2	7	8	7	3	4	8	1	3	10	6	6	8	1	3	16	3	3	5	7	9	2	9	5	6	2	6	8	1	3	12	5	9	5	1	6	8	9	4	5	8	5	7	9	5	4	3	1	2	7	3	3	7	7	2	5	9
0.7395	3	5	4	3	11	4	4	3	5	5	6	2	9	5	2	5	9	5	3	4	4	4	5	3	7	10	8	4	8	2	4	8	1	2	3	5	5	5	12	6	7	3	6	7	5	13	7	5	3	8	2	3	5	4	3	5	5	4	5	4	5	8	8	3	2	3	7	16	4	4	5	1	5	3	2	4	9	4	4	5	7	3	4	9	3	0	7	7	4	5	2	4	4	5	8	5	3	4	1	4
0.729	5	5	8	6	4	1	9	2	6	4	6	5	3	1	2	3	7	4	3	4	9	4	5	4	5	2	4	4	5	7	2	4	3	7	7	4	2	5	5	7	3	3	5	4	3	8	7	5	7	5	7	8	0	6	2	3	8	9	5	4	8	3	6	9	6	4	6	10	5	2	4	4	2	4	16	6	4	2	6	5	3	1	8	4	6	2	3	3	10	6	5	4	5	7	8	3	3	8	8	2
0.7475	9	4	3	6	6	7	6	2	7	6	4	3	3	8	6	9	4	6	3	1	9	3	0	0	3	6	4	3	1	10	8	1	2	1	6	6	11	6	3	5	0	7	3	5	4	11	5	0	2	8	0	4	4	9	3	4	5	7	8	5	4	2	6	4	4	10	0	2	7	5	7	6	5	5	3	5	2	4	6	5	4	6	6	8	0	8	16	0	7	5	2	1	6	4	7	5	4	3	6	7
0.7515	3	4	2	8	4	4	3	4	6	8	5	8	4	7	3	2	5	4	6	2	1	12	2	1	2	6	11	11	1	4	0	3	0	2	2	5	3	8	4	9	3	3	1	3	6	3	13	7	5	6	2	5	6	6	4	3	6	3	4	5	6	5	8	5	2	5	9	4	0	2	2	8	11	3	7	1	6	5	4	3	3	1	5	4	2	0	7	5	5	3	6	6	4	0	8	6	1	5	3	4
0.793	7	3	3	3	6	3	4	3	4	4	6	11	4	3	8	0	3	6	10	5	4	2	3	6	4	0	3	7	7	1	5	3	3	6	2	1	8	11	3	2	3	5	3	2	5	4	2	5	3	4	0	2	12	2	2	2	2	4	7	5	1	5	2	3	5	5	4	7	5	4	3	3	2	5	0	4	3	3	10	4	3	0	3	4	5	3	2	6	2	4	3	6	8	4	2	0	4	2	2	4
0.776	7	4	2	1	2	4	5	2	3	7	6	0	4	1	6	2	3	8	3	5	4	3	3	2	7	7	0	3	7	6	4	4	2	5	2	4	6	3	6	5	5	2	3	5	4	2	8	5	2	6	4	8	3	1	3	7	1	1	5	5	4	7	4	5	6	3	2	12	5	4	4	3	3	3	2	5	5	4	6	3	4	3	2	7	3	2	7	1	10	5	2	3	7	3	8	0	1	8	2	2
0.7985	5	8	8	2	3	6	1	5	3	6	4	4	3	7	1	5	1	4	5	5	4	3	5	4	2	9	1	6	7	7	3	5	1	2	2	7	2	6	7	2	3	4	5	5	4	4	3	2	3	3	4	4	4	7	0	6	6	2	2	1	4	2	3	3	5	3	3	4	4	7	0	4	7	1	0	4	1	4	5	4	2	3	2	6	4	4	0	3	2	2	2	2	10	2	7	1	2	10	2	7
0.7915	2	4	4	1	2	2	4	8	5	3	3	3	4	3	3	0	7	3	8	2	3	2	4	4	4	3	6	2	0	4	3	3	5	4	1	8	3	5	6	2	2	5	3	5	5	0	4	10	7	2	6	5	5	4	0	0	4	0	6	8	0	2	4	4	3	3	5	3	3	2	5	2	4	3	11	4	2	2	6	2	2	5	3	4	3	5	2	2	6	6	4	5	10	5	1	3	5	5	6	0
0.8155	4	3	1	3	6	6	2	2	1	4	4	5	4	3	2	4	2	12	5	3	3	1	5	2	4	5	3	3	2	5	4	2	3	4	6	1	7	4	3	2	1	5	3	3	4	2	1	3	4	1	3	3	4	7	2	6	4	0	4	6	6	3	2	4	1	3	5	2	3	4	6	4	3	2	5	2	3	5	5	5	2	3	2	4	2	5	2	5	2	2	7	4	2	10	2	3	4	3	6	5
0.827	7	4	1	1	3	1	2	4	2	2	5	0	3	4	3	5	4	4	9	5	10	1	2	3	1	4	3	3	0	4	5	6	4	2	5	7	2	3	2	2	0	6	2	4	3	2	3	2	4	3	2	3	4	0	4	2	3	3	5	8	2	0	4	3	3	0	2	3	3	1	6	2	1	3	1	9	2	1	8	2	3	4	3	2	2	3	4	1	3	4	5	7	3	2	3	2	3	5	3	3
0.836	3	5	3	4	4	4	2	1	3	0	2	9	6	1	4	2	0	3	7	5	0	3	3	2	0	2	2	3	4	0	4	7	3	2	2	4	5	4	4	4	2	6	2	4	2	3	3	2	4	5	3	2	4	0	9	1	3	2	3	1	0	2	4	2	1	3	2	2	4	0	3	4	2	5	7	2	0	3	3	5	2	8	5	3	5	5	4	2	3	2	2	4	3	1	3	2	3	5	3	2
0.828	2	2	1	4	4	3	2	1	7	2	2	2	5	0	0	5	6	3	0	3	5	5	4	0	3	6	3	2	3	3	3	3	1	0	2	4	2	4	7	3	4	5	2	2	4	3	4	8	2	2	1	5	2	5	4	3	6	3	3	3	4	2	3	1	2	4	0	4	2	0	5	4	3	4	5	1	4	2	4	8	1	4	0	5	3	1	3	4	6	0	2	5	2	2	4	4	5	3	4	3
0.8445	4	4	2	2	4	3	4	6	1	2	1	2	2	2	2	5	4	2	4	5	6	2	5	1	5	3	2	2	1	0	6	5	1	3	3	2	7	2	0	2	3	1	2	2	5	6	2	4	3	2	3	4	3	2	3	3	3	5	2	5	1	1	0	5	4	5	1	3	3	4	4	5	2	2	3	3	2	3	3	4	1	7	2	0	4	1	5	4	6	4	2	0	6	2	0	2	0	2	1	4
0.8515	4	2	2	0	0	5	4	3	2	1	3	4	2	4	2	4	4	4	4	2	2	2	3	0	5	3	1	4	7	3	3	4	0	0	2	5	4	4	3	0	3	7	2	5	2	3	1	3	2	4	2	0	5	4	4	4	4	3	7	2	4	1	0	4	2	0	3	4	2	2	0	2	0	3	4	2	0	4	2	4	1	2	3	4	6	1	3	0	3	3	5	0	5	4	5	2	3	3	2	9
0.8705	2	2	3	2	2	1	2	7	4	4	2	2	3	2	1	4	2	3	3	1	1	2	4	1	2	4	4	6	1	3	2	1	2	4	3	0	6	4	2	2	4	3	2	2	4	2	2	2	2	5	6	1	1	2	5	5	4	1	1	3	2	1	4	2	1	3	5	4	1	3	2	3	2	2	3	3	4	3	1	5	2	1	2	4	6	3	1	1	1	5	0	4	1	0	3	3	7	2	3	3
0.8905	2	0	2	4	4	3	2	6	4	4	4	3	4	3	3	1	1	2	2	4	1	3	2	2	4	3	3	3	2	0	1	4	0	1	1	1	3	5	2	3	3	1	1	0	2	4	2	0	3	3	0	0	5	2	1	4	1	1	3	5	3	1	2	1	3	4	1	3	2	2	0	2	2	1	1	2	3	1	0	2	5	1	4	2	0	3	2	2	1	4	2	1	1	1	1	3	2	2	4	2
0.9005	4	5	1	3	1	1	3	3	3	2	1	3	2	2	0	2	3	1	2	0	2	2	5	0	1	3	3	0	3	3	4	3	0	2	1	2	2	0	6	4	0	3	0	2	1	3	3	4	0	1	3	4	3	1	5	2	3	4	0	3	0	3	0	1	2	2	1	1	3	2	0	2	1	2	3	0	1	3	0	1	5	1	1	2	2	4	1	3	1	3	1	0	3	3	3	2	1	3	7	3
0.906	0	1	1	2	2	0	0	1	2	2	4	3	2	2	2	1	3	2	1	1	2	1	5	1	2	2	2	0	0	6	2	2	0	0	1	2	5	1	3	3	1	2	1	2	2	1	1	1	2	2	4	1	2	4	3	4	4	0	2	0	1	4	1	3	1	1	1	4	1	4	2	1	2	1	2	1	4	2	2	1	2	4	3	0	1	2	4	2	0	0	3	0	2	6	0	2	2	1	4	2
0.9155	1	1	2	1	3	3	1	0	3	2	5	2	2	0	4	2	1	1	3	6	1	3	0	3	0	1	3	1	1	2	2	0	1	0	5	2	2	2	3	0	3	2	0	3	0	0	1	6	2	0	2	1	3	2	2	2	3	2	3	1	2	3	0	1	1	2	1	2	1	3	1	1	2	0	4	0	4	1	1	1	1	2	0	3	1	2	2	1	0	6	1	3	1	1	1	2	3	0	4	1
0.9225	3	1	4	2	1	1	3	2	2	1	1	1	1	1	2	4	0	3	0	2	2	0	2	0	4	1	1	0	3	2	3	0	0	1	2	0	3	1	1	1	0	4	0	1	1	1	1	3	2	2	2	2	2	3	1	1	2	1	2	2	1	3	1	0	1	1	1	0	2	1	1	2	1	0	1	1	2	1	3	0	4	2	0	1	3	0	1	2	2	1	1	1	3	2	4	0	3	3	0	3
0.935	2	0	3	1	1	3	0	2	0	2	1	2	0	1	0	1	3	2	4	0	4	2	3	1	2	2	2	2	2	0	0	2	1	0	1	2	0	2	0	1	1	2	0	0	1	2	1	0	3	3	2	1	1	0	1	1	1	4	1	1	0	0	2	2	0	1	2	3	2	2	0	0	0	3	1	1	2	2	1	1	1	0	2	2	0	0	0	2	2	2	1	2	0	2	0	1	1	1	1	3
0.9425	1	0	0	0	2	2	0	2	2	2	2	1	0	0	1	1	3	1	1	0	1	2	1	1	0	0	2	2	0	1	3	2	0	0	0	1	2	1	1	1	2	1	3	1	1	1	0	0	2	0	0	2	1	2	1	1	0	0	2	1	1	2	1	3	2	0	1	3	1	2	0	0	2	2	0	0	0	2	2	0	2	0	1	2	0	3	2	1	0	0	2	1	0	1	1	1	2	0	0	1
0.9485	1	1	3	0	0	4	2	0	2	2	0	2	0	1	2	0	1	0	2	1	0	1	1	1	1	1	2	0	2	0	0	1	1	0	2	2	2	0	0	1	1	0	0	2	1	1	1	3	3	0	1	0	1	0	0	0	2	0	0	0	1	0	1	2	1	1	1	2	2	3	1	2	2	1	0	2	0	3	2	0	1	0	1	0	0	1	1	0	2	0	2	2	0	1	0	0	0	0	2	0
0.9545	1	0	1	2	1	0	0	1	3	2	2	2	2	1	2	2	1	0	1	1	1	0	2	0	1	0	1	0	1	1	1	2	1	1	0	2	2	1	0	2	1	0	0	0	3	1	1	1	1	3	2	0	1	0	0	3	0	0	0	2	0	0	0	0	1	1	1	2	2	2	3	1	0	0	0	2	0	1	2	1	1	1	3	0	0	1	1	2	0	0	5	1	2	1	0	0	0	2	0	0
0.971	0	0	0	0	1	1	0	1	4	2	1	2	4	0	0	0	1	1	3	0	3	1	1	0	2	1	1	0	1	2	0	0	0	1	0	0	0	0	0	0	2	0	1	0	0	2	2	0	2	0	0	1	2	0	0	0	1	1	0	2	1	0	2	0	1	2	1	2	0	1	0	0	1	0	1	1	0	0	0	0	0	0	1	1	1	0	1	1	0	2	1	0	2	2	0	0	0	1	1	1
0.978	1	1	0	1	2	0	0	0	2	0	1	0	0	0	2	0	1	0	0	0	0	0	0	1	1	0	2	0	2	0	1	1	0	0	1	0	1	0	0	0	0	0	1	2	1	0	1	0	0	1	0	0	0	0	0	0	0	0	0	2	0	2	0	0	0	1	1	0	0	0	0	1	2	1	0	1	0	1	0	0	0	0	0	0	1	1	1	0	1	0	1	0	0	0	0	0	0	0	0	0
0.9895	2	0	1	1	0	0	2	0	0	0	0	0	2	2	0	1	0	1	0	0	0	0	0	0	0	2	0	1	0	1	0	0	0	1	1	0	0	0	1	0	0	2	0	0	0	0	0	0	0	0	1	0	2	0	0	0	0	0	0	0	0	0	0	0	0	0	0	1	0	1	1	0	0	0	0	1	1	0	0	1	0	0	1	1	0	0	0	0	0	0	0	0	0	1	1	1	0	0	0	0
1	0	0	0	0	0	0	0	0	2	0	0	1	0	0	0	0	1	1	0	0	1	0	0	2	0	0	0	0	0	0	0	0	0	0	0	0	0	0	0	0	0	0	0	0	0	0	0	0	0	0	0	0	0	0	0	0	0	0	0	0	0	0	0	0	0	0	0	0	0	0	0	0	0	0	0	0	0	0	0	0	0	0	0	0	0	0	0	0	0	0	0	0	0	0	0	0	0	0	0	0
